{
	"VANTAGE_ROT": [-3.1415926,0,0],
	"PHI": 1.251,
	"XI": 1.825,
	"NABLA": -3.725,
	"RHO": -4.025,
	"P_OPTICAL": 5.17,
	"D_TOF": 0.48,

	"PHI": 1.251,
	"XI": 1.825,
	"NABLA": -3.725,
	"RHO": -4.025,
	"P_OPTICAL": 5.17,
	"D_TOF": 0.48,

	"MU": 7.2794,
	"BETA": 14.5588,
	"SIGMA": 6.4,
	"PSI": 13.92,
	"GAMMA": 26.08,
	"L": 81.25,


	"TUBE_ORIGIN_COEFFS":
	[
  		{"x": [-1, -1], "y": [1], "z": [-1]},
  		{"x": [0, -1], "y": [1], "z": [-1]},
  		{"x": [0, 1], "y": [1], "z": [-1]},
  		{"x": [1, 1], "y": [1], "z": [-1]},
  		{"x": [1, 1], "y": [-1], "z": [-1]},
  		{"x": [0, 1], "y": [-1], "z": [-1]},
  		{"x": [0, -1], "y": [-1], "z": [-1]},
  		{"x": [-1, -1], "y": [-1], "z": [-1]}
  	],

  	"CAMERA_LOC": [0, 0, 0],
  	"CAMERA_ROT": [0, 0, 0],

  	"FOCAL_LENGTH": 35,
	"APERTURE": 36,
	"H_FOV": 0.927,
	"V_FOV": 0.548,
	"X_Res": 4096,
	"Y_Res": 4096,
	"Focus": 2000
}